…
### Run

Copy the file to your local directory, and run it:

```
env SINGLEARITY_API_KEY=YOUR_API_KEY R -f markov.R
```

Current functionality means that running the file is interactive: when run, you will be asked if you want to proceed with running the default matchup of the Dodgers batting vs. Chris Paddack in the bottom of the first inning. If not, you will be asked if you want to change the lineup, opposing pitcher, environment (team/stadium/etc.), state (i.e., outs, baserunners, top of inning), or starting position in the batting order. The result will be the expected runs scored in the inning and the corresponding probability:

```
# A tibble: 21 x 2
   `Expected Runs Scored` Probability
                    <dbl>       <dbl>
 1                      0    0.677   
 2                      1    0.152   
 3                      2    0.0818  
 4                      3    0.0470  
 5                      4    0.0244  
 6                      5    0.0102  
 7                      6    0.00430 
 8                      7    0.00173 
 9                      8    0.000829
10                      9    0.000355
# … with 11 more rows
```
…
